{
  "$schema": "https://on.cypress.io/cypress.schema.json",
  "chromeWebSecurity": false,
  "fixturesFolder": "e2e/fixtures",
  "integrationFolder": "e2e/integration",
  "pluginsFile": "e2e/plugins/index.js",
  "supportFile": "e2e/support/index.js",
  "screenshotsFolder": "e2e/screenshots",
  "videosFolder": "e2e/videos",
  "baseUrl": "http://localhost:4200"
}
